Take-home Exercise 1: Survey Analysis with Data Visualisation – ISSS608-VAA
…
Installing and loading R packages

pacman::p_load(tidyverse, patchwork, scales, readxl)

Importing the data

The code chunk below imports Upload for elsiver.xlsx into the R environment by using read_excel() of the readxl package. readxl is used here because the dataset is provided in Excel format. Categorical columns are converted to character so that fct_reorder() and factor-based plots work correctly when the Excel file stores them as numbers.

survey <- read_excel("data/Upload for elsiver.xlsx") %>%
  mutate(across(where(is.character), ~ na_if(., ""))) %>%
  mutate(across(any_of(c("CPRO", "CGEN", "CRAC", "CJOB", "CQUI", "FEDU", "FVTP", "FCRA", "FTAP")), as.character)) %>%
  filter(is.finite(TEIN))
survey

# A tibble: 724 × 30
   CPRO  CGEN  CRAC  CJOB  CQUI   TEIN  TAIN  TSII  TOIN FEDU  FVTP  FCRA  FTAP 
   <chr> <chr> <chr> <chr> <chr> <dbl> <dbl> <dbl> <dbl> <chr> <chr> <chr> <chr>
 1 1     1     2     1     3        37    25     7     5 1     1     1     1    
 2 1     1     2     1     5        25    22     0     3 0     1     2     1    
 3 1     2     2     3     3        33    25     0     8 1     1     1     2    
 4 1     1     2     1     3        35    30     5     0 1     1     1     <NA> 
 5 1     2     2     1     3        36    28     0     8 0     1     1     2    
 6 1     2     2     <NA>  4        21    17     0     4 0     1     1     2    
 7 1     1     2     3     1        35    25     0    10 3     2     1     2    
 8 1     1     2     1     3        36    28     0     8 0     1     1     2    
 9 1     1     2     3     3        38    26    12     0 2     2     1     2    
10 1     1     2     1     3        30    22     2     6 0     1     1     2    
# ℹ 714 more rows
# ℹ 17 more variables: LHO1 <dbl>, LHO2 <dbl>, LHO3 <dbl>, LHO4 <dbl>,
#   LCRE <dbl>, LSAV <dbl>, LWDA <dbl>, PPO1 <dbl>, PPO2 <dbl>, PPO3 <dbl>,
#   PPO4 <dbl>, PPO5 <dbl>, ARO1 <dbl>, ARO2 <dbl>, ARO3 <dbl>, ARO4 <chr>,
#   ARO5 <dbl>
…
